…
Surprisingly Kansas is where it is at!

``` r
beer %>% group_by(city,state) %>% summarise(count=n(),numBrewer=length(unique(brewery_id))) %>% arrange(desc(count))
```

    ## # A tibble: 401 x 4
    ## # Groups:   city [384]
    ##    city         state count numBrewer
    ##    <chr>        <chr> <int>     <int>
    ##  1 Grand Rapids MI       66         3
    ##  2 Chicago      IL       55         9
    ##  3 Portland     OR       52        11
    ##  4 Indianapolis IN       43         4
    ##  5 San Diego    CA       42         8
    ##  6 Boulder      CO       41         9
    ##  7 Denver       CO       40         8
    ##  8 Brooklyn     NY       38         4
    ##  9 Seattle      WA       35         9
    ## 10 Longmont     CO       33         1
    ## # ... with 391 more rows

``` r
beer %>% group_by(city,state) %>% summarise(count=n(),numBrewer=length(unique(brewery_id))) %>% arrange(desc(numBrewer))
```

    ## # A tibble: 401 x 4
    ## # Groups:   city [384]
    ##    city          state count numBrewer
    ##    <chr>         <chr> <int>     <int>
    ##  1 Portland      OR       52        11
    ##  2 Boulder       CO       41         9
    ##  3 Chicago       IL       55         9
    ##  4 Seattle       WA       35         9
    ##  5 Austin        TX       25         8
    ##  6 Denver        CO       40         8
    ##  7 San Diego     CA       42         8
    ##  8 Bend          OR       11         6
    ##  9 Portland      ME       12         6
    ## 10 San Francisco CA       32         5
    ## # ... with 391 more rows
…
